<svg width="40" height="40" viewBox="0 0 40 40" fill="none" xmlns="http://www.w3.org/2000/svg">
<path d="M39.9265 9.48522C39.7888 8.97326 39.4529 8.53681 38.9933 8.27221C38.5335 8.0063 37.9867 7.93437 37.4737 8.07205C36.9615 8.21004 36.525 8.5456 36.2604 9.00516L35.9271 9.58513C35.6105 9.4032 35.2059 9.51028 35.0207 9.82533L33.3276 12.7112L32.7477 12.378C32.594 12.2891 32.4111 12.265 32.2399 12.3112C32.0684 12.3578 31.9226 12.4704 31.8344 12.6247C31.6538 12.9433 31.7638 13.3482 32.0811 13.5311L32.6611 13.8644L26.9954 23.6827L25.5956 27.4223L24.929 28.6685C24.5388 29.3474 24.5804 30.1913 25.0358 30.8283L23.536 32.6678L23.1162 31.6149C22.9267 31.1456 22.4883 30.824 21.9842 30.7846C21.4797 30.7449 20.9964 30.9942 20.7364 31.4281L20.4965 31.8346L20.27 29.1684C20.2179 28.5376 19.7294 28.0306 19.1012 27.9544C18.4728 27.8786 17.8778 28.2551 17.677 28.8553L16.0373 33.7744C15.9227 34.1223 16.1102 34.4972 16.4571 34.6144C16.5222 34.6447 16.5922 34.6629 16.6638 34.6674C16.9502 34.6684 17.2054 34.4858 17.2972 34.2144L18.93 29.2953L19.1634 32.0012C19.2116 32.5786 19.6265 33.0587 20.1909 33.1895C20.7552 33.3203 21.3391 33.0717 21.6363 32.5747L21.883 32.1679L22.2963 33.2146C22.4717 33.6556 22.8685 33.9703 23.3381 34.0403C23.8078 34.1103 24.2791 33.9251 24.5759 33.5544L26.129 31.5882C26.3008 31.6331 26.4779 31.6556 26.6556 31.6549C27.37 31.6605 28.0333 31.2842 28.3952 30.6681L29.0618 29.555L31.6014 26.469L37.327 16.5306L37.9069 16.8638C38.0615 16.9524 38.1742 17.0985 38.22 17.2707C38.2663 17.4415 38.2422 17.6238 38.1536 17.7771L35.4874 22.3964C35.3869 22.5481 35.3527 22.7343 35.393 22.912C35.4334 23.0893 35.5444 23.2426 35.7006 23.336C35.8542 23.4252 36.0371 23.4493 36.2083 23.4031C36.3799 23.3566 36.5257 23.2439 36.6139 23.0897L39.2801 18.4703C39.546 18.0105 39.6179 17.4637 39.4799 16.9507C39.3419 16.4385 39.0064 16.002 38.5468 15.7374L37.9668 15.4041L39.6332 12.5179C39.8151 12.2012 39.7081 11.797 39.3933 11.6115L39.7266 11.0315C39.9997 10.5645 40.0719 10.0066 39.9265 9.48522ZM37.4135 9.67171C37.5017 9.51744 37.6482 9.4045 37.8204 9.35861C37.9916 9.3163 38.1725 9.34006 38.3268 9.42533C38.4814 9.51353 38.594 9.65999 38.6402 9.83184C38.6825 10.003 38.6588 10.184 38.5735 10.3383L38.2402 10.9182L37.0803 10.2517L37.4135 9.67171ZM28.3285 28.2821L27.9952 28.0888L27.0087 27.5153L27.9552 24.9826L30.0548 26.1956L28.3285 28.2821ZM26.3288 30.2082C26.0473 30.012 25.9607 29.6345 26.129 29.335L26.4623 28.7554L27.6219 29.4219L27.2886 29.9951C27.1952 30.1571 27.0384 30.2724 26.8558 30.313C26.6732 30.3534 26.4821 30.3157 26.3288 30.2082ZM30.8147 25.1027L28.5085 23.7696L33.8409 14.5309L36.1472 15.864L30.8147 25.1027ZM36.8137 14.7109L34.5075 13.3778L35.8406 11.0715L38.1468 12.4046L36.8137 14.7109Z" fill="#91B0BB"/>
<path d="M10.518 29.8749L8.15874 32.228L6.74557 30.8148C6.48553 30.5564 6.06568 30.5564 5.80563 30.8148C5.67935 30.9401 5.6084 31.1103 5.6084 31.288C5.6084 31.4657 5.67935 31.6363 5.80563 31.7613L7.2188 33.1744C7.46876 33.4224 7.80659 33.5614 8.15874 33.5611C8.51285 33.563 8.85361 33.4241 9.10519 33.1744L11.458 30.8148C11.6845 30.5502 11.6692 30.1561 11.4232 29.91C11.1768 29.6636 10.7826 29.6483 10.518 29.8749Z" fill="#91B0BB"/>
<path d="M2.66626 31.668C2.66626 34.7973 5.20294 37.3337 8.33196 37.3337C11.461 37.3337 13.9977 34.7973 13.9977 31.668C13.9977 31.2999 13.6992 31.0014 13.3311 31.0014C12.963 31.0014 12.6646 31.2999 12.6646 31.668C12.6646 34.0608 10.7248 36.0006 8.33196 36.0006C5.93914 36.0006 3.99937 34.0608 3.99937 31.668C3.99937 29.2751 5.93914 27.3354 8.33196 27.3354C9.26995 27.3328 10.1829 27.6371 10.9315 28.2021C11.226 28.4231 11.6439 28.3632 11.8646 28.0686C12.0856 27.7741 12.026 27.3565 11.7314 27.1355C10.0146 25.848 7.71748 25.641 5.79821 26.6005C3.87862 27.5603 2.66626 29.5222 2.66626 31.668Z" fill="#91B0BB"/>
<path d="M23.996 5.33909C24.3641 5.33909 24.6625 5.04096 24.6625 4.67253C24.6625 4.30443 24.3641 4.00598 23.996 4.00598H6.66558C6.29748 4.00598 5.99902 4.30443 5.99902 4.67253V7.33875C5.99902 7.70717 6.29748 8.0053 6.66558 8.0053H23.996C24.3641 8.0053 24.6625 7.70717 24.6625 7.33875C24.6625 6.97065 24.3641 6.67219 23.996 6.67219H7.33213V5.33909H23.996Z" fill="#91B0BB"/>
<path d="M8.66521 9.33838C8.29711 9.33838 7.99866 9.63683 7.99866 10.0049C7.99866 10.3734 8.29711 10.6715 8.66521 10.6715H21.9963C22.3644 10.6715 22.6628 10.3734 22.6628 10.0049C22.6628 9.63683 22.3644 9.33838 21.9963 9.33838H8.66521Z" fill="#91B0BB"/>
<path d="M25.9955 14.0043H11.3313C10.9632 14.0043 10.6648 14.3027 10.6648 14.6708C10.6648 15.0393 10.9632 15.3374 11.3313 15.3374H25.9955C26.3636 15.3374 26.6621 15.0393 26.6621 14.6708C26.6621 14.3027 26.3636 14.0043 25.9955 14.0043Z" fill="#91B0BB"/>
<path d="M19.3301 18.6701C19.3301 18.302 19.0316 18.0035 18.6635 18.0035H5.33245C4.96435 18.0035 4.66589 18.302 4.66589 18.6701C4.66589 19.0385 4.96435 19.3367 5.33245 19.3367H18.6635C19.0316 19.3367 19.3301 19.0385 19.3301 18.6701Z" fill="#91B0BB"/>
<path d="M25.9955 18.0035H21.3296C20.9615 18.0035 20.6631 18.302 20.6631 18.6701C20.6631 19.0385 20.9615 19.3367 21.3296 19.3367H25.9955C26.3636 19.3367 26.6621 19.0385 26.6621 18.6701C26.6621 18.302 26.3636 18.0035 25.9955 18.0035Z" fill="#91B0BB"/>
<path d="M11.998 22.6694C12.3661 22.6694 12.6645 22.3713 12.6645 22.0029C12.6645 21.6348 12.3661 21.3363 11.998 21.3363H5.33245C4.96435 21.3363 4.66589 21.6348 4.66589 22.0029C4.66589 22.3713 4.96435 22.6694 5.33245 22.6694H11.998Z" fill="#91B0BB"/>
<path d="M14.6642 22.6694H19.3301C19.6982 22.6694 19.9967 22.3713 19.9967 22.0029C19.9967 21.6348 19.6982 21.3363 19.3301 21.3363H14.6642C14.2961 21.3363 13.9977 21.6348 13.9977 22.0029C13.9977 22.3713 14.2961 22.6694 14.6642 22.6694Z" fill="#91B0BB"/>
<path d="M29.9949 30.6682C29.6268 30.6682 29.3283 30.9666 29.3283 31.3347V38.0002C29.3283 38.3687 29.0299 38.6668 28.6618 38.6668H1.99966C1.63156 38.6668 1.33311 38.3687 1.33311 38.0002V2.00637C1.33311 1.63827 1.63156 1.33982 1.99966 1.33982H28.6618C29.0299 1.33982 29.3283 1.63827 29.3283 2.00637V14.5244C29.3283 14.8925 29.6268 15.191 29.9949 15.191C30.363 15.191 30.6614 14.8925 30.6614 14.5244V2.00637C30.6614 0.902069 29.7661 0.00671387 28.6618 0.00671387H1.99966C0.895355 0.00671387 0 0.902069 0 2.00637V38.0002C0 39.1049 0.895355 39.9999 1.99966 39.9999H28.6618C29.7661 39.9999 30.6614 39.1049 30.6614 38.0002V31.3347C30.6614 30.9666 30.363 30.6682 29.9949 30.6682Z" fill="#91B0BB"/>
</svg>
