<svg width="38" height="38" viewBox="0 0 38 38" fill="none" xmlns="http://www.w3.org/2000/svg">
<path fill-rule="evenodd" clip-rule="evenodd" d="M38 28.0532C38 28.6109 37.9222 29.165 37.7689 29.6995L35.7482 36.7742H38V38H0V36.7742H2.25181L0.230452 29.6995C0.0778387 29.165 0 28.6115 0 28.0538C0 25.5703 1.51939 23.4362 3.67742 22.5297V3.67742C3.00139 3.67742 2.45161 3.12765 2.45161 2.45161V1.22581C2.45161 0.549774 3.00139 0 3.67742 0H20.8387C21.5147 0 22.0645 0.549774 22.0645 1.22581V2.45161C22.0645 3.12765 21.5147 3.67742 20.8387 3.67742V17.2765L26.3548 16.6415V14.0232C24.6185 13.6322 23.2903 11.6182 23.2903 9.19355C23.2903 6.49003 24.9396 4.29032 26.9677 4.29032C27.4005 4.29032 27.8227 4.40003 28.223 4.59187C28.8855 3.3011 29.9985 2.45161 31.2581 2.45161C33.2862 2.45161 34.9355 4.65132 34.9355 7.35484C34.9355 9.77948 33.6073 11.7935 31.871 12.1845V16.006L32.4839 15.9355H34.3226V22.5291C36.4806 23.4356 38 25.5697 38 28.0532ZM33.0968 17.1613H32.5194L17.1613 18.9332V22.0645H18.3871V19.6129H22.0645V22.0645H23.2903V19.6129H26.9677V22.0645H28.1935V19.6129H31.871V22.0645H32.0113C32.3821 22.0645 32.7444 22.1031 33.0968 22.1681V17.1613ZM29.4194 22.0645H30.6452V20.8387H29.4194V22.0645ZM24.5161 22.0645H25.7419V20.8387H24.5161V22.0645ZM19.6129 22.0645H20.8387V20.8387H19.6129V22.0645ZM33.7097 7.35484C33.7097 5.36168 32.5868 3.67742 31.2581 3.67742C29.9293 3.67742 28.8065 5.36168 28.8065 7.35484C28.8065 9.348 29.9293 11.0323 31.2581 11.0323C32.5868 11.0323 33.7097 9.348 33.7097 7.35484ZM26.9677 5.51613C25.639 5.51613 24.5161 7.20039 24.5161 9.19355C24.5161 11.1867 25.639 12.871 26.9677 12.871C27.7768 12.871 28.5466 12.2317 29.002 11.2186C28.139 10.3207 27.5806 8.92448 27.5806 7.35484C27.5806 6.7879 27.6566 6.24548 27.7903 5.73861C27.5267 5.59336 27.2515 5.51613 26.9677 5.51613ZM30.0071 11.9596C29.4451 13.0689 28.5766 13.8075 27.5806 14.0245V16.5L30.6452 16.1469V12.1839C30.4251 12.1343 30.2118 12.0589 30.0071 11.9596ZM20.8387 1.22581H3.67742V2.45161H20.8393L20.8387 1.22581ZM19.6129 3.67742H4.90323V22.1681C5.25565 22.1031 5.61787 22.0645 5.98868 22.0645H15.9355V17.841L19.6129 17.4175V3.67742ZM1.22581 28.0532C1.22581 28.4969 1.28771 28.937 1.40906 29.3617L3.52726 36.7742H8.58065V34.3226H6.12903V33.0968H8.58065V30.6452H5.51613V29.4194H8.58065V26.9677H9.80645V29.4194H13.4839V26.9677H14.7097V29.4194H18.3871V26.9677H19.6129V29.4194H23.2903V26.9677H24.5161V29.4194H28.1935V26.9677H29.4194V29.4194H32.4839V30.6452H29.4194V33.0968H31.871V34.3226H29.4194V36.7742H34.4727L36.5903 29.3617C36.7123 28.9364 36.7742 28.4969 36.7742 28.0532C36.7742 25.4269 34.6376 23.2903 32.0107 23.2903H5.98868C3.36239 23.2903 1.22581 25.4269 1.22581 28.0532ZM19.6129 33.0968H23.2903V30.6452H19.6129V33.0968ZM28.1935 33.0968V30.6452H24.5161V33.0968H28.1935ZM14.7097 33.0968H18.3871V30.6452H14.7097V33.0968ZM9.80645 33.0968H13.4839V30.6452H9.80645V33.0968ZM13.4839 36.7742V34.3226H9.80645V36.7742H13.4839ZM18.3871 34.3226H14.7097V36.7742H18.3871V34.3226ZM23.2903 34.3226H19.6129V36.7742H23.2903V34.3226ZM28.1935 36.7742V34.3226H24.5161V36.7742H28.1935ZM11.0323 19.6129H9.80645V17.1613H7.35484V15.9355H9.80645V13.4839H7.35484V12.2581H9.80645V9.80645H7.35484V8.58065H9.80645V6.12903H11.0323V8.58065H13.4839V6.12903H14.7097V8.58065H17.1613V9.80645H14.7097V12.2581H17.1613V13.4839H14.7097V15.9355H17.1613V17.1613H14.7097V19.6129H13.4839V17.1613H11.0323V19.6129ZM13.4839 9.80645H11.0323V12.2581H13.4839V9.80645ZM13.4839 13.4839H11.0323V15.9355H13.4839V13.4839Z" fill="white"/>
</svg>
